%!PS-Adobe-2.0 EPSF-2.0
%%BoundingBox:  0 0 567 301
%%Title: r127.eps: c
%%Creator: ROOT Version 6.20/06
%%CreationDate: Wed Jan 27 16:11:45 2021
%%DocumentNeededResources: ProcSet (FontSetInit)
%%EndComments
%%BeginProlog
80 dict begin
/s {stroke} def /l {lineto} def /m {moveto} def /t {translate} def
/r {rotate} def /rl {roll}  def /R {repeat} def
/d {rlineto} def /rm {rmoveto} def /gr {grestore} def /f {eofill} def
/c {setrgbcolor} def /black {0 setgray} def /sd {setdash} def
/cl {closepath} def /sf {scalefont setfont} def /lw {setlinewidth} def
/box {m dup 0 exch d exch 0 d 0 exch neg d cl} def
/NC{systemdict begin initclip end}def/C{NC box clip newpath}def
/bl {box s} def /bf {gsave box gsave f grestore 1 lw [] 0 sd s grestore} def /Y { 0 exch d} def /X { 0 d} def 
/K {{pop pop 0 moveto} exch kshow} bind def
/ita {/ang 15 def gsave [1 0 ang dup sin exch cos div 1 0 0] concat} def 
/mp {newpath /y exch def /x exch def} def
/side {[w .77 mul w .23 mul] .385 w mul sd w 0 l currentpoint t -144 r} def
/mr {mp x y w2 0 360 arc} def /m24 {mr s} def /m20 {mr f} def
/mb {mp x y w2 add m w2 neg 0 d 0 w neg d w 0 d 0 w d cl} def
/mt {mp x y w2 add m w2 neg w neg d w 0 d cl} def
/w4 {w 4 div} def
/w6 {w 6 div} def
/w8 {w 8 div} def
/m21 {mb f} def /m25 {mb s} def /m22 {mt f} def /m26{mt s} def
/m23 {mp x y w2 sub m w2 w d w neg 0 d cl f} def
/m27 {mp x y w2 add m w3 neg w2 neg d w3 w2 neg d w3 w2 d cl s} def
/m28 {mp x w2 sub y w2 sub w3 add m w3 0 d  0 w3 neg d w3 0 d 0 w3 d w3 0 d  0 w3 d w3 neg 0 d 0 w3 d w3 neg 0 d 0 w3 neg d w3 neg 0 d cl s } def
/m29 {mp gsave x w2 sub y w2 add w3 sub m currentpoint t 4 {side} repeat cl fill gr} def
/m30 {mp gsave x w2 sub y w2 add w3 sub m currentpoint t 4 {side} repeat cl s gr} def
/m31 {mp x y w2 sub m 0 w d x w2 sub y m w 0 d x w2 sub y w2 add m w w neg d x w2 sub y w2 sub m w w d s} def
/m32 {mp x y w2 sub m w2 w d w neg 0 d cl s} def
/m33 {mp x y w2 add m w3 neg w2 neg d w3 w2 neg d w3 w2 d cl f} def
/m34 {mp x w2 sub y w2 sub w3 add m w3 0 d  0 w3 neg d w3 0 d 0 w3 d w3 0 d  0 w3 d w3 neg 0 d 0 w3 d w3 neg 0 d 0 w3 neg d w3 neg 0 d cl f } def
/m35 {mp x y w2 add m w2 neg w2 neg d w2 w2 neg d w2 w2 d w2 neg w2 d x y w2 sub m 0 w d x w2 sub y m w 0 d s} def
/m36 {mb x w2 sub y w2 add m w w neg d x w2 sub y w2 sub m w w d s} def
/m37 {mp x y m w4 neg w2 d w4 neg w2 neg d w2 0 d  w4 neg w2 neg d w2 0 d w4 neg w2 d w2 0 d w4 neg w2 d w4 neg w2 neg d cl s} def
/m38 {mp x w4 sub y w2 add m w4 neg w4 neg d 0 w2 neg d w4 w4 neg d w2 0 d w4 w4 d 0 w2 d w4 neg w4 d w2 neg 0 d x y w2 sub m 0 w d x w2 sub y m w 0 d cl s} def
/m39 {mp x y m w4 neg w2 d w4 neg w2 neg d w2 0 d  w4 neg w2 neg d w2 0 d w4 neg w2 d w2 0 d w4 neg w2 d w4 neg w2 neg d cl f} def
/m40 {mp x y m w4 w2 d w4 w4 neg d w2 neg w4 neg d w2 w4 neg d w4 neg w4 neg d w4 neg w2 d w4 neg w2 neg d w4 neg w4 d w2 w4 d w2 neg w4 d w4 w4 d w4 w2 neg d cl s} def
/m41 {mp x y m w4 w2 d w4 w4 neg d w2 neg w4 neg d w2 w4 neg d w4 neg w4 neg d w4 neg w2 d w4 neg w2 neg d w4 neg w4 d w2 w4 d w2 neg w4 d w4 w4 d w4 w2 neg d cl f} def
/m42 {mp x y w2 add m w8 neg w2 -3 4 div mul d w2 -3 4 div mul w8 neg d w2 3 4 div mul w8 neg d w8 w2 -3 4 div mul d w8 w2 3 4 div mul d w2 3 4 div mul w8 d w2 -3 4 div mul w8 d w8 neg w2 3 4 div mul d cl s} def
/m43 {mp x y w2 add m w8 neg w2 -3 4 div mul d w2 -3 4 div mul w8 neg d w2 3 4 div mul w8 neg d w8 w2 -3 4 div mul d w8 w2 3 4 div mul d w2 3 4 div mul w8 d w2 -3 4 div mul w8 d w8 neg w2 3 4 div mul d cl f} def
/m44 {mp x y m w6 neg w2 d w2 2 3 div mul 0 d w6 neg w2 neg d w2 w6 d 0 w2 -2 3 div mul d w2 neg w6 d w6 w2 neg d w2 -2 3 div mul 0 d w6 w2 d w2 neg w6 neg d 0 w2 2 3 div mul d w2 w6 neg d cl s} def
/m45 {mp x y m w6 neg w2 d w2 2 3 div mul 0 d w6 neg w2 neg d w2 w6 d 0 w2 -2 3 div mul d w2 neg w6 d w6 w2 neg d w2 -2 3 div mul 0 d w6 w2 d w2 neg w6 neg d 0 w2 2 3 div mul d w2 w6 neg d cl f} def
/m46 {mp x y w4 add m w4 neg w4 d w4 neg w4 neg d  w4 w4 neg d w4 neg w4 neg d w4 w4 neg d w4 w4 d w4 w4 neg d w4 w4 d w4 neg w4 d w4 w4 d w4 neg w4 d w4 neg w4 neg d cl s} def
/m47 {mp x y w4 add m w4 neg w4 d w4 neg w4 neg d w4 w4 neg d w4 neg w4 neg d  w4 w4 neg d w4 w4 d w4 w4 neg d w4 w4 d w4 neg w4 d w4 w4 d w4 neg w4 d w4 neg w4 neg d cl f} def
/m48 {mp x y w4 add m w4 neg w4 d w4 neg w4 neg d w4 w4 neg d  w4 neg w4 neg d w4 w4 neg d w4 w4 d w4 w4 neg d w4 w4 d w4 neg w4 d w4 w4 d w4 neg w4 d w4 neg w4 neg d  w4 w4 neg d w4 neg w4 neg d w4 neg w4 d w4 w4 d cl f} def
/m49 {mp x w2 sub w3 add y w2 sub w3 add m  0 w3 neg d w3 0 d 0 w3 d w3 0 d 0 w3 d w3 neg 0 d 0 w3 d w3 neg 0 d 0 w3 neg d w3 neg 0 d 0 w3 neg d w3 0 d 0 w3 d w3 0 d 0 w3 neg d w3 neg 0 d cl f } def
/m2 {mp x y w2 sub m 0 w d x w2 sub y m w 0 d s} def
/m5 {mp x w2 sub y w2 sub m w w d x w2 sub y w2 add m w w neg d s} def
%%IncludeResource: ProcSet (FontSetInit)
%%IncludeResource: font Times-Roman
%%IncludeResource: font Times-Italic
%%IncludeResource: font Times-Bold
%%IncludeResource: font Times-BoldItalic
%%IncludeResource: font Helvetica
%%IncludeResource: font Helvetica-Oblique
%%IncludeResource: font Helvetica-Bold
%%IncludeResource: font Helvetica-BoldOblique
%%IncludeResource: font Courier
%%IncludeResource: font Courier-Oblique
%%IncludeResource: font Courier-Bold
%%IncludeResource: font Courier-BoldOblique
%%IncludeResource: font Symbol
%%IncludeResource: font ZapfDingbats
/reEncode {exch findfont dup length dict begin {1 index /FID eq  {pop pop} {def} ifelse } forall /Encoding exch def currentdict end dup /FontName get exch definefont pop } def [/Times-Bold /Times-Italic /Times-BoldItalic /Helvetica /Helvetica-Oblique
 /Helvetica-Bold /Helvetica-BoldOblique /Courier /Courier-Oblique /Courier-Bold /Courier-BoldOblique /Times-Roman /AvantGarde-Book /AvantGarde-BookOblique /AvantGarde-Demi /AvantGarde-DemiOblique /Bookman-Demi /Bookman-DemiItalic /Bookman-Light
 /Bookman-LightItalic /Helvetica-Narrow /Helvetica-Narrow-Bold /Helvetica-Narrow-BoldOblique /Helvetica-Narrow-Oblique /NewCenturySchlbk-Roman /NewCenturySchlbk-Bold /NewCenturySchlbk-BoldItalic /NewCenturySchlbk-Italic /Palatino-Bold
 /Palatino-BoldItalic /Palatino-Italic /Palatino-Roman ] {ISOLatin1Encoding reEncode } forall
%%EndProlog
%%BeginSetup
%%EndSetup
newpath  gsave  .25 .25 scale  gsave  0 0 t black[  ] 0 sd 3 lw 1 1 1 c 2268 1202 0 0 bf black 1 0.8 0 c 2268 1202 0 0 bf black 2268 1202 0 0 bl mycolor1 c 425 200 238 511 bf black 425 200 238 511 bl
 gsave  2268 1202 0 0 C 247.853 518.498 t 0 r /Helvetica findfont 39.8845 sf 0 0 m (1) show NC gr 
 gsave  2268 1202 0 0 C 304.831 575.476 t 0 r /Helvetica findfont 39.8845 sf 0 0 m (Hours1) show NC gr 
 gsave  2268 1202 0 0 C 304.831 618.209 t 0 r /Helvetica findfont 39.8845 sf 0 0 m (Name1) show NC gr  mycolor2 c 212 401 227 721 bf black 212 401 227 721 bl
 gsave  2268 1202 0 0 C 236.458 729.316 t 0 r /Helvetica findfont 39.8845 sf 0 0 m (2) show NC gr 
 gsave  2268 1202 0 0 C 367.507 783.445 t 90 r /Helvetica findfont 39.8845 sf 0 0 m (Hours2) show NC gr 
 gsave  2268 1202 0 0 C 324.773 783.445 t 90 r /Helvetica findfont 39.8845 sf 0 0 m (Name2) show NC gr  mycolor3 c 212 401 454 721 bf black 212 401 454 721 bl
 gsave  2268 1202 0 0 C 464.369 729.316 t 0 r /Helvetica findfont 39.8845 sf 0 0 m (3) show NC gr 
 gsave  2268 1202 0 0 C 595.418 783.445 t 90 r /Helvetica findfont 39.8845 sf 0 0 m (Hours3) show NC gr 
 gsave  2268 1202 0 0 C 552.685 783.445 t 90 r /Helvetica findfont 39.8845 sf 0 0 m (Name3) show NC gr  mycolor4 c 212 401 964 721 bf black 212 401 964 721 bl
 gsave  2268 1202 0 0 C 974.32 729.316 t 0 r /Helvetica findfont 39.8845 sf 0 0 m (4) show NC gr 
 gsave  2268 1202 0 0 C 1105.37 783.445 t 90 r /Helvetica findfont 39.8845 sf 0 0 m (Hours4) show NC gr 
 gsave  2268 1202 0 0 C 1062.64 783.445 t 90 r /Helvetica findfont 39.8845 sf 0 0 m (Name4) show NC gr  mycolor5 c 212 401 1361 721 bf black 212 401 1361 721 bl
 gsave  2268 1202 0 0 C 1370.32 729.316 t 0 r /Helvetica findfont 39.8845 sf 0 0 m (5) show NC gr 
 gsave  2268 1202 0 0 C 1501.37 783.445 t 90 r /Helvetica findfont 39.8845 sf 0 0 m (Hours5) show NC gr 
 gsave  2268 1202 0 0 C 1458.63 783.445 t 90 r /Helvetica findfont 39.8845 sf 0 0 m (Name5) show NC gr  mycolor6 c 213 401 1757 721 bf black 213 401 1757 721 bl
 gsave  2268 1202 0 0 C 1766.31 729.316 t 0 r /Helvetica findfont 39.8845 sf 0 0 m (6) show NC gr 
 gsave  2268 1202 0 0 C 1900.21 783.445 t 90 r /Helvetica findfont 39.8845 sf 0 0 m (Hours6) show NC gr 
 gsave  2268 1202 0 0 C 1857.48 783.445 t 90 r /Helvetica findfont 39.8845 sf 0 0 m (Name6) show NC gr  mycolor7 c 425 200 907 60 bf black 425 200 907 60 bl
 gsave  2268 1202 0 0 C 917.343 68.3734 t 0 r /Helvetica findfont 39.8845 sf 0 0 m (7) show NC gr 
 gsave  2268 1202 0 0 C 974.32 125.351 t 0 r /Helvetica findfont 39.8845 sf 0 0 m (Hours7) show NC gr 
 gsave  2268 1202 0 0 C 974.32 168.085 t 0 r /Helvetica findfont 39.8845 sf 0 0 m (Name7) show NC gr  mycolor8 c 425 200 1361 60 bf black 425 200 1361 60 bl
 gsave  2268 1202 0 0 C 1370.32 68.3734 t 0 r /Helvetica findfont 39.8845 sf 0 0 m (8) show NC gr 
 gsave  2268 1202 0 0 C 1427.29 125.351 t 0 r /Helvetica findfont 39.8845 sf 0 0 m (Hours8) show NC gr 
 gsave  2268 1202 0 0 C 1427.29 168.085 t 0 r /Helvetica findfont 39.8845 sf 0 0 m (Name8) show NC gr  mycolor9 c 425 200 1814 60 bf black 425 200 1814 60 bl
 gsave  2268 1202 0 0 C 1823.29 68.3734 t 0 r /Helvetica findfont 39.8845 sf 0 0 m (9) show NC gr 
 gsave  2268 1202 0 0 C 1880.27 125.351 t 0 r /Helvetica findfont 39.8845 sf 0 0 m (Hours9) show NC gr 
 gsave  2268 1202 0 0 C 1880.27 168.085 t 0 r /Helvetica findfont 39.8845 sf 0 0 m (Name9) show NC gr 
 gr  gr showpage
end
%%EOF
